{
    "keys": [
        "mets"
    ],
    "mets": {
        "name": "mets",
        "type": "work_level",
        "in_regex": "^\\S*\\/mets\\/(\\S*).xml$",
        "ftype": "TEI_2a",
        "in_suffix": "xml",
        "out_bucket": "indexer",
        "out_key": "mets/%s.xml",
        "out_prefix": "mets",
        "force_overwrite": true
    },
    "img": {
        "name": "img",
        "type": "page_level",
        "in_regex": "^\\S*\\/tiff\\/(\\S*)\\/(\\S*).(\\S*)$",
        "in_suffix": ".tif",
        "out_bucket": "indexer",
        "out_key": "orig/%s/%s.%s",
        "page": "%s.%s",
        "out_prefix": "orig",
        "pdf_out_key": "pdf/%s/%s.pdf",
        "packaging": "file",
        "storage": "fs",
        "force_overwrite": true
    },
    "pdf": {
        "name": "pdf",
        "type": "page_level_4",
        "in_regex": "^orig\\/(\\S*)\\/(\\S*).(tif|TIF)$",
        "in_bucket": "indexer",
        "in_prefix": "orig",
        "out_key": "pdf/%s/%s.pdf",
        "packaging": "file",
        "storage": "s3",
        "force_overwrite": true
    },
    "fulltext": {
        "name": "fulltext",
        "type": "page_level",
        "in_regex": "^orig\\/(\\S*)\\/(\\S*).(\\S*)$",
        "in_suffix": "xml",
        "out_bucket": "indexer",
        "out_key": "fulltext/%s/%s.%s",
        "out_prefix": "fulltext",
        "packaging": "file",
        "storage": "fs",
        "force_overwrite": false,
        "ftype": "TEI_2a"
    }
}
